[
  {
    "Id": "24386350-98ad-49f3-aa0e-a714bdcbf0bd",
    "Title": "disintermediate dot-com paradigms",
    "Description": "elementum nullam varius nulla facilisi cras non velit nec nisi vulputate nonummy maecenas tincidunt lacus at velit",
    "Author": "Gilly Kiffe",
    "CoverImage": "http://dummyimage.com/152x100.png/5fa2dd/ffffff",
    "Genre": "Horror|Thriller",
    "Price": 64,
    "Currency": "PHP",
    "Quantity": 1,
    "PublicationDate": "4/19/2023",
    "CreatedBy": "66de0a9f-149f-4119-b080-6e667c8140dc"
  },
  {
    "Id": "63c0093e-87fd-448a-8da3-31885eb1ab6f",
    "Title": "synthesize strategic web services",
    "Description": "sapien placerat ante nulla justo aliquam quis turpis eget elit sodales scelerisque mauris",
    "Author": "Laurel Tambling",
    "CoverImage": "http://dummyimage.com/161x100.png/dddddd/000000",
    "Genre": "Comedy",
    "Price": 85,
    "Currency": "EUR",
    "Quantity": 2,
    "PublicationDate": "4/19/2023",
    "CreatedBy": "66de0a9f-149f-4119-b080-6e667c8140dc"
  },
  {
    "Id": "df2328f2-c863-428c-b933-2828d479eae7",
    "Title": "transform sticky systems",
    "Description": "posuere cubilia curae duis faucibus accumsan odio curabitur convallis duis consequat dui nec nisi volutpat eleifend",
    "Author": "Mar Panswick",
    "CoverImage": "http://dummyimage.com/134x100.png/5fa2dd/ffffff",
    "Genre": "Drama",
    "Price": 14,
    "Quantity": 3,
    "PublicationDate": "4/19/2023",
    "CreatedBy": "66de0a9f-149f-4119-b080-6e667c8140dc"
  },
  {
    "Id": "1e079dbf-206a-4235-971a-101e7fdbbdd1",
    "Title": "innovate frictionless solutions",
    "Description": "ultrices mattis odio donec vitae nisi nam ultrices libero non mattis pulvinar",
    "Author": "Gilbertina Oughtright",
    "CoverImage": "http://dummyimage.com/137x100.png/ff4444/ffffff",
    "Genre": "Crime|Drama",
    "Price": 78,
    "Quantity": 4,
    "PublicationDate": "4/19/2023",
    "AvgRating": 5,
    "CreatedBy": "66de0a9f-149f-4119-b080-6e667c8140dc"
  },
  {
    "Id": "f1e3f56a-24ad-40e0-a02d-fc5bfb5bbbaa",
    "Title": "expedite cross-platform systems",
    "Description": "felis ut at dolor quis odio consequat varius integer ac leo pellentesque ultrices mattis odio donec",
    "Author": "Hamilton Greatland",
    "CoverImage": "http://dummyimage.com/180x100.png/5fa2dd/ffffff",
    "Genre": "Drama|Romance",
    "Price": 20,
    "Quantity": 5,
    "PublicationDate": "4/19/2023",
    "CreatedBy": "66de0a9f-149f-4119-b080-6e667c8140dc"
  }
]
